[  
    {  
        "title":"Taxon",
        "facets":[  
            {  
                "sort":"index",
                "field":"taxon_name"
            },
            {  
                "sort":"index",
                "field":"raw_taxon_name"
            },
            {  
                "sort":"index",
                "field":"subspecies_name"
            },
            {  
                "sort":"index",
                "field":"species"
            },
            {  
                "sort":"index",
                "field":"genus"
            },
            {  
                "sort":"index",
                "field":"family"
            },
            {  
                "sort":"index",
                "field":"order"
            },
            {  
                "sort":"index",
                "field":"class"
            },
            {  
                "sort":"index",
                "field":"phylum"
            },
            {  
                "sort":"index",
                "field":"kingdom"
            },
            {  
                "sort":"count",
                "field":"rank"
            },
            {  
                "sort":"count",
                "field":"name_match_metric"
            },
            {  
                "sort":"index",
                "field":"species_group"
            },
            {  
                "sort":"index",
                "field":"common_name"
            },
            {  
                "sort":"count",
                "field":"species_subgroup"
            },
            {  
                "sort":"count",
                "field":"interaction"
            }
        ]
    },
    {  
        "title":"Identification",
        "facets":[  
            {  
                "sort":"index",
                "field":"identified_by"
            },
            {  
                "sort":"index",
                "field":"raw_identification_qualifier"
            },
            {  
                "sort":"count",
                "field":"taxonomic_issue"
            },
            {  
                "sort":"index",
                "field":"type_status"
            },
            {  
                "sort":"index",
                "field":"original_name_usage"
            }
        ]
    },
    {  
        "title":"Occurrence",
        "facets":[  
            {  
                "sort":"index",
                "field":"collector"
            },
            {  
                "sort":"count",
                "field":"raw_sex"
            },
            {  
                "sort":"count",
                "field":"life_stage"
            },
            {  
                "sort":"count",
                "field":"establishment_means"
            },
            {  
                "sort":"index",
                "field":"month"
            },
            {  
                "sort":"index",
                "field":"year"
            },
            {  
                "sort":"index",
                "field":"occurrence_year"
            },
            {
                "sort":"index",
                "field":"occurrence_decade_i"
            },
            {  
                "sort":"count",
                "field":"state_conservation"
            },
            {  
                "sort":"count",
                "field":"raw_state_conservation"
            },
            {  
                "sort":"count",
                "field":"country_conservation"
            },
            {  
                "sort":"index",
                "field":"event_id"
            }
        ]
    },
    {  
        "title":"Location",
        "facets":[  
            {  
                "sort":"index",
                "field":"country"
            },
            {  
                "sort":"count",
                "field":"state"
            },
            {  
                "sort":"index",
                "field":"elevation_d_rng"
            },
            {  
                "sort":"index",
                "field":"min_elevation_d_rng"
            },
            {  
                "sort":"count",
                "field":"cl959"
            },
            {  
                "sort":"count",
                "field":"cl1048"
            },
            {  
                "sort":"count",
                "field":"cl966"
            },
            {  
                "sort":"count",
                "field":"cl21"
            },
            {  
                "sort":"index",
                "field":"biogeographic_region"
            },
            {  
                "sort":"count",
                "field":"cl1918"
            },
            {  
                "sort":"count",
                "field":"cl617"
            },
            {  
                "sort":"count",
                "field":"cl620"
            },
            {  
                "sort":"count",
                "field":"species_habitats"
            },
            {  
                "sort":"index",
                "field":"coordinate_uncertainty"
            },
            {  
                "sort":"count",
                "field":"geospatial_kosher"
            },
            {  
                "sort":"index",
                "field":"location_id"
            }
        ]
    },
    {  
        "title":"Record",
        "facets":[  
            {  
                "sort":"index",
                "field":"basis_of_record"
            },
            {  
                "sort":"count",
                "field":"multimedia"
            },
            {  
                "sort":"index",
                "field":"occurrence_status"
            }
        ]
    },
    {  
        "title":"Assertions",
        "facets":[  
            {  
                "sort":"count",
                "field":"sensitive"
            },
            {  
                "sort":"count",
                "field":"assertions"
            },
            {  
                "sort":"count",
                "field":"outlier_layer"
            },
            {  
                "sort":"count",
                "field":"outlier_layer_count"
            },
            {  
                "sort":"count",
                "field":"user_assertions"
            },
            {  
                "sort":"index",
                "field":"assertion_user_id"
            },
            {  
                "sort":"count",
                "field":"duplicate_status"
            },
            {  
                "sort":"count",
                "field":"duplicate_type"
            }
        ]
    },
    {  
        "title":"Attribution",
        "facets":[  
            {  
                "sort":"count",
                "field":"alau_user_id"
            },
            {  
                "sort":"count",
                "field":"collection_uid"
            },
            {  
                "sort":"count",
                "field":"institution_uid"
            },
            {  
                "sort":"count",
                "field":"data_provider_uid"
            },
            {  
                "sort":"count",
                "field":"data_resource_uid"
            }
        ]
    }
]
